{
  "Comment.nvim": { "branch": "master", "commit": "0236521ea582747b58869cb72f70ccfa967d2e89" },
  "LuaSnip": { "branch": "master", "commit": "a7a4b4682c4b3e2ba82b82a4e6e5f5a0e79dec32" },
  "catppuccin": { "branch": "main", "commit": "045e3499d9ec8d84635fb08877ae44fd33f6a38d" },
  "cmp-buffer": { "branch": "main", "commit": "3022dbc9166796b644a841a02de8dd1cc1d311fa" },
  "cmp-nvim-lsp": { "branch": "main", "commit": "5af77f54de1b16c34b23cba810150689a3a90312" },
  "cmp-nvim-lua": { "branch": "main", "commit": "f12408bdb54c39c23e67cab726264c10db33ada8" },
  "cmp-path": { "branch": "main", "commit": "91ff86cd9c29299a64f968ebb45846c485725f23" },
  "cmp_luasnip": { "branch": "master", "commit": "05a9ab28b53f71d1aece421ef32fee2cb857a843" },
  "easyline": { "branch": "main", "commit": "9850209ad8a0d617f66f165d7e4ddf03f073e8f4" },
  "fidget.nvim": { "branch": "main", "commit": "60404ba67044c6ab01894dd5bf77bd64ea5e09aa" },
  "focus.nvim": { "branch": "master", "commit": "c9bc6a969c3ff0d682f389129961c9e71ff2c918" },
  "friendly-snippets": { "branch": "main", "commit": "dcd4a586439a1c81357d5b9d26319ae218cc9479" },
  "gitsigns.nvim": { "branch": "main", "commit": "2c2463dbd82eddd7dbab881c3a62cfbfbe3c67ae" },
  "gp.nvim": { "branch": "main", "commit": "d76be3d067b4e7352d1e744954327982cf1d24aa" },
  "indent-blankline.nvim": { "branch": "master", "commit": "821a7acd88587d966f7e464b0b3031dfe7f5680c" },
  "inspire.nvim": { "branch": "main", "commit": "465ea10797343eabb32308742f83361de32cbe0d" },
  "lazy.nvim": { "branch": "main", "commit": "aedcd79811d491b60d0a6577a9c1701063c2a609" },
  "lsp-zero.nvim": { "branch": "v3.x", "commit": "8cce56f62f3b67a44b71106bc687e13e53ff95b0" },
  "lspkind-nvim": { "branch": "master", "commit": "1735dd5a5054c1fb7feaf8e8658dbab925f4f0cf" },
  "markdown-preview.nvim": { "branch": "master", "commit": "a923f5fc5ba36a3b17e289dc35dc17f66d0548ee" },
  "mason-lspconfig.nvim": { "branch": "main", "commit": "21d33d69a81f6351e5a5f49078b2e4f0075c8e73" },
  "mason.nvim": { "branch": "main", "commit": "3b5068f0fc565f337d67a2d315d935f574848ee7" },
  "none-ls.nvim": { "branch": "main", "commit": "ff3819c52ca04232fb70fbd6c1639de9abcbe122" },
  "nvim-autopairs": { "branch": "master", "commit": "c6139ca0d5ad7af129ea6c89cb4c56093f2c034a" },
  "nvim-cmp": { "branch": "main", "commit": "04e0ca376d6abdbfc8b52180f8ea236cbfddf782" },
  "nvim-lspconfig": { "branch": "master", "commit": "e5e600232188ed9fb960f5df6bb06084ae8bf3ec" },
  "nvim-surround": { "branch": "main", "commit": "d47001f8ddf9646c24f16d2732d4d0255acd2121" },
  "nvim-treesitter": { "branch": "master", "commit": "c09932bd2de01dc9c01e870fe83060693c67de13" },
  "nvim-ts-autotag": { "branch": "main", "commit": "531f48334c422222aebc888fd36e7d109cb354cd" },
  "nvim-ts-context-commentstring": { "branch": "main", "commit": "7ab799a9792f7cf3883cf28c6a00ad431f3d382a" },
  "nvim-web-devicons": { "branch": "master", "commit": "4adea17610d140a99c313e3f79a9dc01825d59ae" },
  "plenary.nvim": { "branch": "master", "commit": "f7adfc4b3f4f91aab6caebf42b3682945fbc35be" },
  "symbols-outline.nvim": { "branch": "master", "commit": "564ee65dfc9024bdde73a6621820866987cbb256" },
  "telescope-file-browser.nvim": { "branch": "master", "commit": "8839e3f8070dfafa5b0c0e4652700298e7b872c4" },
  "telescope-fzf-native.nvim": { "branch": "main", "commit": "9ef21b2e6bb6ebeaf349a0781745549bbb870d27" },
  "telescope.nvim": { "branch": "master", "commit": "7011eaae0ac1afe036e30c95cf80200b8dc3f21a" },
  "trouble.nvim": { "branch": "main", "commit": "f1168feada93c0154ede4d1fe9183bf69bac54ea" }
}